{
  "type": "service_account",
  "project_id": "coniu-eb038",
  "private_key_id": "952252dec18b96d954c1e17597ed01697d3caf54",
  "private_key": "-----BEGIN PRIVATE KEY-----\nMIIEvQIBADANBgkqhkiG9w0BAQEFAASCBKcwggSjAgEAAoIBAQDOecCjoDRRS+oo\nUo3Zo4P3YUiAPv2EgjvenHtKFNjDWNwMjT6e8J/EDT9d1To2SvOuhDbQwHC3ONen\nYgy8drPlaG0HI+MhLe95UUW3BRNzuybbbViW+YUBfwe4scU943vj4HuOYrAQBIOD\nzvemSqmuGqtchfEyPak+ooaLOiyWomZ+fW6IMzP8Lwd7ppg4yHERqK3zaavd28+m\ntkgA/UaFGN9kQxM/wrHSsF7QaWNzILHNE2A48UBUZEEnX8mb8tZ+jx3vEYcXH0eW\nqka7V/WqG1m1/jf+pMf+BwwGphQO3o/SbWYNO5ylxlHdYVJQfK4978t/8mgJsCHk\n13En4aUhAgMBAAECggEAXyiFu+ONuRn/pO3HKlLN8ykGvPRK6tMKvKHpwE6zR/Sg\nFbjS73V+bGCen6Qx2+vXOsr8aGEIkajE2wO5UvJyHnxuIyhK+XOuNn9aXesc9+19\nDwvqFEqTHglpiZmEie1Zn8BJsWmSMw+hfRHZ2O34HaF08INakgkRAyjsUSZSfmkt\naZ02IDMc5g3RpVDnqrycq2pyvL1aF2W3whrxA85eGbXPyMHdVEJbdXNtNsLNbieL\nfom32eb2VW9RyHkLXYSZ6LJxOVarU9C56rWE3Nil8mtCIINSnut0zauoIGhHZLCn\nHuEPSaY950bXhoITtXsL/an4hIz2E5rJ2KGIP7a1AQKBgQD86F2avEWN3bkMJgHP\nbT5WSrLWpKHDkAs23/QyU51hqVxp20a27OehgIWH6oZLtt6QPNcI3vYnmjV5ho4l\n365mNHSfjfsO17Am/FERhwlo9OLk+lvI69RDwU4ELG7dQ61nqIypezGnbKGdBwOa\n1efrAHw64PJwvQrK+kRu9+nAWQKBgQDRAAxejHxWIeVa4USGp1ziIBkmRjPl0p0b\nCE2i0z/OR0bNwyYlJVOxOapB6RuSugMxjEJBA0R+gAaCiTuE9r/8Oqy76ihdYC8J\nUQWBZdN1dV8RD4gZR8l3lPfE/tx1PAUnFSln5Gjjt2zLPFUE0Jpgx8IZZcJpASvA\ndeuFcsyyCQKBgHpefBwIiKbx5z1njmys8QKTtiCBG/wh0CtHBULsjjPY3Gwjuv17\ndz//jZyL71rnKp0jsvAJ4ZSb2s/oORM+PYYaT2t8KUOvPP5AC4GtkvIDu10Lfimj\nYds+xt7iGOpaeqazOQwwHYBi4Xe3Exlx8nsUiwd6HBRMg9JecYo3zhRRAoGBAJX0\ngOt9xOBP5a31HyO2BXDBMwpBKI9nNA3nQTzocUlh3q1XrZDNXWU1SLGNvZjjGdN9\nHTRkUcqptQIH0Mqv+EPTHYiek2Ob1WPL3DVhh/0ov5MQH8hzt1uzaKrRagA7lj7a\nciD2w0NPoiGYIjAYNAvoh52NY5XPn0Kx2NCg87lxAoGAdJ9oQV1YPYEnVjIBS/kA\nvtElx0U7l+suezdhmD9D1xIh8XPg7aFR3FAYw5oO8Pg326G7N9oQn5yTaTp0d+6M\nrNd0KL8WTqklBqZB/+l8pvf05tiT1u1NNAP10NptC362BGgfv/KkX9V/TMaX9kzw\nASMfpZq28xwqXDOii6Y1DNI=\n-----END PRIVATE KEY-----\n",
  "client_email": "firebase-adminsdk-ko012@coniu-eb038.iam.gserviceaccount.com",
  "client_id": "107524947062707932703",
  "auth_uri": "https://accounts.google.com/o/oauth2/auth",
  "token_uri": "https://accounts.google.com/o/oauth2/token",
  "auth_provider_x509_cert_url": "https://www.googleapis.com/oauth2/v1/certs",
  "client_x509_cert_url": "https://www.googleapis.com/robot/v1/metadata/x509/firebase-adminsdk-ko012%40coniu-eb038.iam.gserviceaccount.com"
}
