{
  "type": "service_account",
  "project_id": "coniu-eb038",
  "private_key_id": "253513943dc5a1a4a6f8a7fa8239a4858e518c9c",
  "private_key": "-----BEGIN PRIVATE KEY-----\nMIIEvQIBADANBgkqhkiG9w0BAQEFAASCBKcwggSjAgEAAoIBAQCqHVWG1Wk2GhJn\nbVeKAA5F6unjodGe7YWfmXiWBzBzBXOXnLmtiF3o//1EDd6bmbnzk+j3zyt9ml8G\ny3CCBs8docxuDKVyCsguwaUbdhwKHF/pqb0iCGyhzCuFqfdyMUgEM5KLvKOTXOXg\navhiMlOdj6DUEX6M8qXMI8Oxl/B8N7z3+a7QvtILYzWEPov8Cl5LzM4A6O9eta+k\nlmZ0CCqokwPdllr0h6kBJ7Emd47WLOQfkD9Kc/LswutcTz4JJ7skOkIdi+jUF4K5\nFpz3QnjgbbKC4PAABms6b/h+DCTmttX/2kfin2dXpvOp766tD9YOShRuGybJ13Y6\nTn96JUpNAgMBAAECggEAFBE/zJcSQTqUHzVL1VCqXl8W1i55nujgEXK2QeR5N6hV\n+XWYhbsHcPv5sXR9ZReeUviIy+rZc4ipWxDWpdAN0K4MgpLlVW2mLbXUN0gYiKzO\nN685S3F49yExpSPmt8bOewhmaiuHlFOqHm4f/N149aZCz6F8rz3Uhx9U73c//DcZ\nsC/rHtKLvcJqEKW5pXcBmw6T22usc4eW253szV8huZMDpmjpwuOqDrQy9k35SVcW\nq4OtMjWbkhmAFOub1WQ+CsOdLWA9a002VPSTwu/kKjDkFgOjfqWi7HWDy8aa2uNm\nZzXeSPuvHA29HILw8JrnZQVoaKz8AS/BZjPGCzovwQKBgQDfHWTv3H65iVXlD8R4\n11m8iGl2dPpW5wR93Gc2KLpFYLBbcCPLwo3yH7AHiRLVj7Zo/+X6iYlV0b1dmKJt\nVcoNkZfQ6IvytvZd2fyqtsvjbeUoh80IuqR1cuQEyIn74rxE8fpUTpjA7x+WseKb\noDc5lbYv26zbnbVHwO7rXYXa3QKBgQDDMCBGmGedUN+XJm94ACTsiAJ0dGdlzBjT\nojXdGnbSFbGs+68mupZgNe5rHPLTuPToYMmrcS+QKvrinsOKCVvonSSUeSIsojl+\nmnXP9l3pMEWCGliQVrrRUYQQAuoVGRjBpP7c7v1XkutCzRFuMYIFAzrvmJOwdfOJ\n1eL27BqeMQKBgAjzP+pTWQ4OUVDICiSi1um2OyzSUnyL9eUqo0VL6vT/hPOWEwmI\ne3M8DC6xM/03L6UUpuAfBlBYApWvmsxyBZH3xjROL9cDuexX40fh31n3PZsbn4D7\nI7/GZRlABjEBjnXhkx4wrPYIYacE6cc+bRi1RcKzuEJzGCORvMPaU5VNAoGANgqA\nFSujHHJExZOVrzLTBk4N5/JGom+kvAugQCxQk5AAFnXEo8NrWQ31ieCE9suxuxj5\nHSeEVLUhq1brqq82rCu98gGrzZHIu13GmqKKk8KSrBfhR21L4iJgnxI/f0Hokcy9\n56ufpvx9eIxQdCLu7bZcPfQPh/7QQ+xdH6J1KDECgYEAz6aRxKH9DtSyypFS52mV\ncrFBGQyyIcyDnDnUWvP1j7GmNm37jaH3wAfJE8YuvELFojTh3K5y+rTlA3z7dTQ5\nxzM0+1SYXwhn1mD9BXePEgrW6/Q/TXQGDyMQptLjbgc4yiwugMmHpJNbr4C1/CzK\nEa0K0Bi7Ofy06FWIw+JjWN4=\n-----END PRIVATE KEY-----\n",
  "client_email": "firebase-adminsdk-ko012@coniu-eb038.iam.gserviceaccount.com",
  "client_id": "107524947062707932703",
  "auth_uri": "https://accounts.google.com/o/oauth2/auth",
  "token_uri": "https://accounts.google.com/o/oauth2/token",
  "auth_provider_x509_cert_url": "https://www.googleapis.com/oauth2/v1/certs",
  "client_x509_cert_url": "https://www.googleapis.com/robot/v1/metadata/x509/firebase-adminsdk-ko012%40coniu-eb038.iam.gserviceaccount.com"
}
